Computational Biology Project 1
…
I chose an inner join because I wanted to be able to compare statistics between similar undergrad and graduate programs, so only majors that appeared in both datasets were included in the joined dataset.

employment <- recent_grads %>% inner_join(grad_students)

## Joining, by = c("Major_code", "Major", "Major_category")

Summary Statistics and dplyr

Here, I used mutate to create a variable that described the proportion of women out of the total students in a major. I simply divided the Women_undergrad column by the Total_undergrad column to get this proportion. I then filtered for only those majors that had a proportion of lower than half for and selected only the necessary columns to see which majors had lacking representation. I arranged them from lowest to highest proportions. Interestingly, the lowest proportion was 0.0 in Military Technologies.

employment %>% mutate(propwomen_undergrad = Women_undergrad/Total_undergrad) %>%
  filter(propwomen_undergrad<0.5) %>% select(-c(1:2,4:39))%>%
  arrange(propwomen_undergrad)

## # A tibble: 76 x 2
##    Major                                       propwomen_undergrad
##    <chr>                                                     <dbl>
##  1 MILITARY TECHNOLOGIES                                    0     
##  2 MECHANICAL ENGINEERING RELATED TECHNOLOGIES              0.0775
##  3 CONSTRUCTION SERVICES                                    0.0907
##  4 MINING AND MINERAL ENGINEERING                           0.102 
##  5 NAVAL ARCHITECTURE AND MARINE ENGINEERING                0.107 
##  6 MECHANICAL ENGINEERING                                   0.120 
##  7 PETROLEUM ENGINEERING                                    0.121 
##  8 TRANSPORTATION SCIENCES AND TECHNOLOGIES                 0.125 
##  9 FORESTRY                                                 0.125 
## 10 AEROSPACE ENGINEERING                                    0.140 
## # … with 66 more rows
…
